<?xml version="1.0" standalone="no"?>
<!DOCTYPE svg PUBLIC "-//W3C//DTD SVG 20010904//EN"
 "http://www.w3.org/TR/2001/REC-SVG-20010904/DTD/svg10.dtd">
<svg version="1.0" xmlns="http://www.w3.org/2000/svg"
 width="1357.000000pt" height="231.000000pt" viewBox="0 0 1357.000000 231.000000"
 preserveAspectRatio="xMidYMid meet">
<metadata>
Created by potrace 1.16, written by Peter Selinger 2001-2019
</metadata>
<g transform="translate(0.000000,231.000000) scale(0.100000,-0.100000)"
fill="#000000" stroke="none">
<path d="M0 1155 l0 -1155 1113 0 c1032 0 1114 1 1137 17 14 9 30 22 35 29 6
6 23 15 40 19 16 3 32 11 36 16 9 16 265 83 356 94 61 7 191 -9 208 -26 5 -5
19 -9 31 -9 12 0 29 -11 38 -24 8 -14 25 -27 36 -31 11 -3 20 -10 20 -15 0 -5
14 -22 31 -39 l31 -31 2824 0 c1553 0 2824 4 2824 9 0 4 -4 21 -10 37 -11 33
-60 386 -67 485 -5 68 21 256 38 274 5 5 9 19 9 31 0 12 9 57 21 100 11 44 24
95 29 114 4 19 13 49 19 65 32 90 71 217 71 231 0 9 9 46 19 82 10 37 31 110
46 162 29 104 85 259 119 331 20 40 42 66 103 119 13 11 43 15 118 15 89 -1
104 -4 137 -25 20 -14 37 -31 38 -39 0 -7 12 -25 27 -39 20 -18 24 -27 14 -30
-20 -7 -91 -82 -91 -97 0 -7 -7 -15 -15 -19 -8 -3 -15 -14 -15 -25 0 -11 -4
-21 -9 -23 -41 -16 -131 -335 -131 -466 0 -23 -4 -61 -9 -84 -6 -24 -17 -96
-25 -161 -9 -65 -23 -135 -32 -155 -33 -75 -39 -87 -57 -107 -28 -31 -74 -136
-81 -185 -9 -64 9 -215 34 -290 60 -181 260 -229 381 -92 36 40 58 140 60 277
1 75 -4 128 -14 165 -45 155 -44 249 5 485 21 104 24 116 59 255 32 130 51
277 45 359 -2 41 -8 77 -13 80 -14 10 -32 96 -26 122 3 13 18 38 34 54 57 61
69 75 69 83 0 4 21 30 45 57 25 28 45 53 45 57 0 4 6 13 13 20 6 8 25 28 41
46 l30 32 -4917 0 -4917 0 0 -1155z m5963 899 c161 -48 193 -59 207 -70 8 -7
31 -19 50 -28 64 -28 120 -73 175 -138 34 -40 57 -140 58 -248 1 -103 -16
-210 -34 -210 -5 0 -9 -7 -9 -14 0 -17 -48 -72 -60 -69 -5 1 -14 -4 -20 -12
-9 -11 -9 -15 -1 -15 6 0 11 6 11 13 0 8 4 7 10 -3 9 -13 10 -13 11 0 0 8 4 5
7 -8 4 -12 6 -46 4 -75 -4 -52 -4 -52 -39 -55 -23 -1 -43 4 -55 14 -23 22 -24
81 0 108 11 13 12 17 2 10 -8 -6 -23 -10 -32 -9 -14 3 -16 -6 -16 -56 1 -32
-3 -59 -8 -59 -9 -1 -24 89 -17 102 2 4 -4 5 -14 1 -16 -6 -17 -5 -3 12 14 18
14 18 -9 2 -20 -13 -28 -14 -40 -4 -14 10 -14 10 -3 -5 8 -9 19 -15 26 -12 8
3 16 -2 19 -10 4 -10 0 -14 -14 -11 -10 2 -24 7 -29 10 -6 4 -7 -1 -3 -12 6
-17 6 -17 -14 0 -16 14 -23 15 -29 6 -5 -9 -11 -7 -21 7 -13 17 -13 16 -8 -16
8 -43 21 -60 50 -60 26 0 50 24 40 41 -5 7 0 7 16 -1 l23 -13 -28 -23 c-15
-13 -37 -24 -49 -24 -28 0 -67 26 -67 46 0 8 -4 14 -9 14 -4 0 -6 12 -4 28 4
21 2 24 -6 12 -9 -12 -11 -11 -11 7 0 12 -5 25 -11 29 -8 4 -9 0 -4 -15 4 -12
2 -21 -4 -21 -6 0 -11 8 -11 18 0 14 -2 15 -10 2 -6 -10 -10 -11 -10 -2 0 6
-4 12 -10 12 -6 0 -10 -26 -10 -59 0 -58 -1 -60 -30 -66 -42 -9 -66 1 -79 33
-21 51 17 107 66 98 12 -3 20 1 20 9 0 8 -9 12 -24 9 -13 -3 -30 3 -40 13 -10
10 -25 18 -33 18 -10 0 -14 8 -13 23 2 12 -2 23 -7 23 -6 1 -13 2 -17 3 -5 0
-21 10 -38 22 -16 11 -49 31 -72 44 -24 13 -43 27 -43 31 0 9 -118 69 -136 69
-7 0 -14 5 -16 10 -5 15 -76 39 -118 40 -51 1 -112 17 -121 32 -4 7 -23 18
-41 24 -19 7 -32 17 -30 25 2 7 -3 18 -10 24 -30 24 -38 57 -38 150 0 73 3 95
13 95 8 0 20 18 27 40 7 22 19 40 27 40 7 0 13 6 13 13 0 28 65 35 310 36 163
0 246 3 248 10 6 17 136 13 195 -5z m-2903 -649 c26 -13 30 -21 30 -55 0 -48
-11 -55 -52 -34 -72 37 -148 14 -134 -40 5 -20 23 -34 79 -60 39 -19 86 -49
102 -66 26 -28 30 -38 30 -90 0 -71 -21 -105 -85 -137 -53 -28 -142 -31 -197
-8 -44 18 -53 30 -53 68 0 35 17 41 63 22 42 -17 109 -20 138 -5 24 13 26 62
3 81 -9 8 -46 30 -83 49 -77 41 -111 84 -111 142 0 96 61 147 173 148 42 0 79
-6 97 -15z m207 9 c21 -6 22 -10 25 -190 3 -182 3 -184 29 -209 31 -31 95 -36
134 -11 37 24 47 80 43 250 l-3 151 53 3 52 3 0 -183 c0 -194 -9 -238 -56
-280 -77 -68 -253 -62 -317 10 -38 42 -46 90 -47 274 0 160 2 177 18 181 26 7
45 7 69 1z m693 -10 c42 -8 79 -40 73 -63 -5 -19 -7 -18 -50 5 -94 49 -186 23
-230 -66 -26 -50 -32 -161 -12 -221 34 -99 143 -138 238 -84 53 31 63 31 59 3
-5 -35 -86 -71 -157 -71 -109 1 -178 61 -202 172 -33 154 38 303 156 330 38 9
59 8 125 -5z m-1230 -245 l0 -250 -52 3 -53 3 -3 235 c-1 129 0 240 2 247 4 8
24 13 56 13 l50 0 0 -251z m2302 94 c39 -35 52 -74 52 -153 -1 -101 -27 -154
-91 -182 -52 -23 -97 -19 -136 12 -14 11 -28 20 -31 20 -3 0 -6 -40 -6 -90 0
-82 -2 -90 -19 -90 -17 0 -20 11 -26 123 -3 67 -5 181 -3 252 3 125 4 130 25
133 17 3 22 -3 25 -23 l3 -27 28 22 c53 42 135 43 179 3z m-686 11 c102 -48
113 -240 19 -323 -61 -53 -177 -49 -230 9 -59 65 -58 215 3 284 41 45 144 60
208 30z m214 -15 l0 -32 31 32 c26 28 36 32 72 29 35 -3 43 -7 45 -26 3 -22 1
-23 -33 -16 -33 6 -39 3 -75 -35 l-40 -42 0 -124 c0 -118 -1 -125 -20 -125
-12 0 -20 7 -20 18 0 9 -3 86 -6 170 -3 84 -3 159 0 167 3 8 15 15 26 15 16 0
20 -7 20 -31z m1884 -180 c29 -14 50 -65 41 -102 -10 -38 -38 -58 -86 -60
l-44 -2 -3 88 -3 87 35 0 c19 0 46 -5 60 -11z"/>
<path d="M4895 1228 c-11 -6 -32 -22 -47 -36 -26 -24 -28 -32 -28 -102 0 -70
2 -78 28 -103 90 -87 182 -36 182 101 0 100 -32 152 -92 152 -13 0 -32 -6 -43
-12z"/>
<path d="M4193 1220 c-78 -47 -69 -226 14 -265 113 -54 203 61 163 207 -21 73
-106 102 -177 58z"/>
<path d="M13077 2293 c3 -10 9 -22 14 -28 4 -5 10 -31 14 -57 4 -27 11 -48 16
-48 5 0 9 -21 9 -46 0 -25 5 -54 10 -64 6 -11 15 -81 21 -156 11 -139 3 -226
-26 -299 -7 -16 -18 -64 -25 -105 -7 -41 -16 -82 -21 -91 -4 -9 -11 -70 -13
-135 -6 -123 -16 -171 -47 -216 -11 -14 -19 -29 -19 -33 0 -14 -140 -142 -187
-171 -15 -10 -32 -22 -38 -28 -16 -18 -137 -110 -175 -134 -85 -53 -180 -181
-180 -241 0 -17 -7 -48 -15 -68 -8 -21 -21 -67 -29 -103 -11 -53 -41 -157 -73
-252 -5 -17 28 -18 595 -18 l600 0 9 68 c4 37 7 145 6 240 -2 104 1 172 7 172
5 0 16 24 25 53 13 45 15 107 12 378 -3 315 -13 429 -38 414 -4 -3 -11 4 -13
17 -19 85 -36 181 -36 204 0 14 -11 47 -23 73 -25 49 -60 183 -77 291 -5 36
-7 140 -5 233 l5 167 -154 0 c-144 0 -155 -1 -149 -17z"/>
<path d="M12163 770 c-12 -5 -28 -18 -35 -30 -7 -11 -20 -20 -29 -20 -9 0 -21
-11 -27 -25 -7 -15 -29 -34 -50 -43 -20 -10 -49 -29 -64 -43 -15 -14 -50 -31
-78 -37 -77 -18 -281 -15 -340 4 l-49 16 -26 -27 c-28 -32 -30 -36 -12 -33 14
3 19 -64 4 -73 -5 -4 -4 -15 3 -28 6 -12 19 -52 29 -90 21 -78 42 -131 54
-131 4 0 18 -11 31 -23 22 -22 27 -23 70 -13 25 6 46 14 46 18 0 5 6 8 14 8 7
0 30 16 50 35 20 19 50 42 66 52 17 9 30 22 30 28 0 6 18 29 40 50 22 21 40
45 40 52 0 7 4 13 10 13 5 0 16 13 25 30 8 16 33 39 55 50 36 18 45 29 41 52
-1 7 83 50 121 62 34 10 60 114 36 144 -12 14 -24 14 -55 2z"/>
<path d="M10088 762 c-15 -4 -37 -15 -48 -24 -11 -10 -29 -18 -39 -18 -10 0
-24 -7 -31 -14 -6 -8 -27 -20 -46 -26 -66 -22 -66 -130 0 -173 14 -9 33 -25
43 -35 54 -55 169 -112 228 -112 36 0 245 39 260 48 5 4 24 8 40 9 17 1 67 4
112 7 95 6 156 20 173 41 7 8 18 15 25 15 25 0 45 36 45 83 0 69 -16 76 -196
87 -175 11 -239 23 -276 50 -15 11 -34 20 -43 20 -9 0 -29 10 -45 21 -22 17
-46 23 -102 25 -40 1 -85 0 -100 -4z"/>
</g>
</svg>
